# Created at 2019-11-27T22:10:22.279
org.apache.maven.surefire.testset.TestSetFailedException: Suite file E:\Selenium\WorkSpace\VP_WS\MavenProject\homeTestNg.xml is not a valid file
	at org.apache.maven.surefire.testng.TestNGXmlTestSuite.locateTestSets(TestNGXmlTestSuite.java:99)
	at org.apache.maven.surefire.testng.TestNGProvider.invoke(TestNGProvider.java:119)
	at org.apache.maven.surefire.booter.ForkedBooter.runSuitesInProcess(ForkedBooter.java:377)
	at org.apache.maven.surefire.booter.ForkedBooter.execute(ForkedBooter.java:138)
	at org.apache.maven.surefire.booter.ForkedBooter.run(ForkedBooter.java:465)
	at org.apache.maven.surefire.booter.ForkedBooter.main(ForkedBooter.java:451)


