<?xml version="1.0" encoding="UTF-8"?>
<testng-results skipped="0" failed="0" ignored="2" total="3" passed="1">
  <reporter-output>
  </reporter-output>
  <suite name="FREE CRM Application Test Automation Test Suite" duration-ms="47" started-at="2019-12-24T09:26:55Z" finished-at="2019-12-24T09:26:55Z">
    <groups>
    </groups>
    <test name="MavenProjectTest" duration-ms="47" started-at="2019-12-24T09:26:55Z" finished-at="2019-12-24T09:26:55Z">
      <class name="com.google.test.HomeTest">
        <test-method status="PASS" signature="TC1(java.lang.String, java.lang.String)[pri:0, instance:com.google.test.HomeTest@4590c9c3]" name="TC1" duration-ms="14" started-at="2019-12-24T14:56:55Z" finished-at="2019-12-24T14:56:55Z">
          <params>
            <param index="0">
              <value>
                <![CDATA[TC1]]>
              </value>
            </param>
            <param index="1">
              <value>
                <![CDATA[]]>
              </value>
            </param>
          </params>
          <reporter-output>
          </reporter-output>
        </test-method> <!-- TC1 -->
      </class> <!-- com.google.test.HomeTest -->
    </test> <!-- MavenProjectTest -->
  </suite> <!-- FREE CRM Application Test Automation Test Suite -->
</testng-results>
